Estimating trends in messy time series
…
]
]

<https://stats.stackexchange.com/q/244042/1390>

---

# Galveston Bay

```
## # A tibble: 15,276 × 13
##    STATION_ID DATE     TIME   LATITUDE LONGITUDE  YEAR MONTH   DAY SEASON
##    <fct>      <chr>    <time>    <dbl>     <dbl> <dbl> <dbl> <dbl> <chr> 
##  1 13296      6/20/91  11:04      29.5     -94.8  1991     6    20 Summer
##  2 13296      3/17/92  09:30      29.5     -94.8  1992     3    17 Spring
##  3 13296      9/23/91  11:24      29.5     -94.8  1991     9    23 Fall  
##  4 13296      9/23/91  11:24      29.5     -94.8  1991     9    23 Fall  
##  5 13296      6/20/91  11:04      29.5     -94.8  1991     6    20 Summer
##  6 13296      12/17/91 10:15      29.5     -94.8  1991    12    17 Winter
##  7 13296      6/29/92  11:17      29.5     -94.8  1992     6    29 Summer
##  8 13305      3/24/87  11:53      29.6     -95.0  1987     3    24 Spring
##  9 13305      4/2/87   13:39      29.6     -95.0  1987     4     2 Spring
## 10 13305      8/11/87  15:25      29.6     -95.0  1987     8    11 Summer
## # … with 15,266 more rows, and 4 more variables: MEASUREMENT <dbl>,
## #   datetime <dttm>, DoY <dbl>, ToD <dbl>
```
…
